<svg width="120" height="120" viewBox="0 0 120 120" fill="none" xmlns="http://www.w3.org/2000/svg">
<path fill-rule="evenodd" clip-rule="evenodd" d="M84.6558 115.198C84.524 113.614 84.1899 110.689 83.8302 107.536C83.1899 101.914 82.4656 95.5677 82.6375 94.456L82.7704 93.6028L83.6277 93.7994C84.9338 94.0997 89.4849 96.8904 92.0153 98.443L93.3507 99.2557L95.7957 100.726C97.864 101.976 99.9396 103.23 102.05 104.378C103.93 103.033 106.305 100.661 108.406 98.1666C110.447 95.7465 112.215 93.2298 113 91.452C111.123 89.9327 103.954 85.8134 98.9957 82.9643C97.0835 81.8657 95.4957 80.9529 94.6458 80.4382C90.6349 78.0062 86.3142 77.1863 82.2619 77.6487C79.4193 77.9728 76.7035 78.9332 74.3182 80.4108C71.9316 81.8907 69.8744 83.8878 68.3512 86.2877C66.1635 89.7337 65.0635 94.0222 65.6367 98.8184C65.7354 99.6453 65.9013 101.358 66.1025 103.439C66.6354 108.944 67.4269 117.118 68.0342 119.416C69.9536 119.467 73.0353 118.956 76.1559 118.172C79.3876 117.361 82.6314 116.262 84.6521 115.195L84.6558 115.198Z" fill="#C0D271"/>
<path fill-rule="evenodd" clip-rule="evenodd" d="M59.4909 100.869C59.5495 97.2054 59.2848 93.8367 58.0922 90.8018C56.9117 87.8002 54.7971 85.0857 51.1411 82.6787C48.4924 80.9343 45.1339 79.751 41.5828 79.5139C38.4231 79.303 35.1122 79.8392 32.016 81.3918C30.3233 82.2414 27.0185 84.4447 23.4723 86.9434C18.9529 90.1285 14.0664 93.7807 11.5981 95.7433C12.692 97.7845 14.7786 100.081 17.0468 102.221C19.3565 104.399 21.8406 106.401 23.6869 107.826L42.3047 94.6935L42.3474 96.1925C42.3913 97.7201 42.284 100.548 42.1645 103.688C41.9694 108.847 41.7401 114.867 42.0901 117.076L43.8084 117.549C48.1888 118.771 54.3252 120.482 58.8678 119.873L59.4921 100.869H59.4909Z" fill="#99CC99"/>
<path fill-rule="evenodd" clip-rule="evenodd" d="M29.0985 76.0787C31.7826 73.9755 33.6106 71.304 34.6837 68.4346C35.8788 65.2376 36.1422 61.7916 35.6166 58.6076C33.9532 48.5435 26.2815 45.362 17.7146 41.8087C16.2097 41.1843 14.6769 40.5492 13.0891 39.839L12.1196 39.4029C9.88063 38.3912 6.31851 36.7814 4.51856 36.2547C3.48321 37.9158 2.29422 41.1616 1.39302 44.4254C0.495478 47.6772 -0.108167 50.8981 0.0162206 52.5246L20.8853 61.5985L0.724741 72.5706C1.35156 75.2338 2.05642 77.9804 3.02225 80.6782C3.97101 83.3271 5.17464 85.9342 6.81119 88.3758C8.6331 87.3892 10.855 86.2619 13.2208 85.0632C19.0292 82.12 25.7059 78.7359 29.0973 76.0787H29.0985Z" fill="#7CB8A6"/>
<path fill-rule="evenodd" clip-rule="evenodd" d="M36.4588 42.321C39.8917 42.5152 43.5696 41.6823 47.433 39.2872C57.6949 32.9229 56.5413 23.7227 55.3804 14.4784C55.2255 13.2308 55.0682 11.982 54.9255 10.5915C54.8609 9.96706 54.8035 9.32599 54.7401 8.6027C54.5084 5.94904 54.1755 2.17052 53.7206 0.401021C51.9207 0.300928 48.2342 0.891954 44.6599 1.83092C41.5636 2.64478 38.5966 3.71005 37.0966 4.79439C37.1649 6.76051 37.6271 10.0695 38.1015 13.4715C38.7929 18.419 39.51 23.5642 39.11 25.4493L38.8783 26.5372L19.7141 15.3959C17.8727 16.7496 15.3301 19.3305 13.1155 21.9699C11.0802 24.396 9.34362 26.8411 8.72168 28.3687C10.8155 29.907 19.2348 34.7651 24.0067 37.5165L26.8627 39.1704C29.7931 40.8946 33.0175 42.1256 36.4601 42.3186L36.4588 42.321Z" fill="#54AB68"/>
<path fill-rule="evenodd" clip-rule="evenodd" d="M63.5352 28.8498C64.6584 31.9384 66.762 34.7743 70.6131 37.2636C82.9823 45.2627 93.7077 36.8906 104.766 28.2564C106.542 26.8729 108.324 25.4824 110.104 24.1609C106.826 19.1479 102.664 15.8269 98.6113 12.5954L98.0698 12.164L79.6093 25.1952L79.4568 23.8368C79.1739 21.3178 79.3532 16.8493 79.5227 12.5763C79.691 8.37835 79.8507 4.37343 79.5654 2.80292C77.1861 1.93545 73.8118 1.06202 70.429 0.525803C67.7522 0.10279 65.0791 -0.110504 62.9048 0.0575098L62.2962 18.6879C62.2389 22.2925 62.3962 25.7219 63.534 28.851L63.5352 28.8498Z" fill="#41747A"/>
</svg>
